<?xml version="1.0" encoding="UTF-8"?>
<svg width="100px" height="82px" viewBox="0 0 100 82" version="1.1" xmlns="http://www.w3.org/2000/svg" xmlns:xlink="http://www.w3.org/1999/xlink">
    <!-- Generator: Sketch 52.3 (67297) - http://www.bohemiancoding.com/sketch -->
    <title>swag-icon</title>
    <desc>Created with Sketch.</desc>
    <g id="Page-1" stroke="none" stroke-width="1" fill="none" fill-rule="evenodd">
        <g id="GitLab-First-Look" transform="translate(-938.000000, -1534.000000)">
            <g id="swag-icon" transform="translate(939.000000, 1535.000000)">
                <path d="M49,2.623 C41.278,2.623 35.019,1.448 35.019,0 C35.019,5.795 41.278,10.492 49,10.492 C56.722,10.492 62.981,5.795 62.981,0 C62.981,1.448 56.722,2.623 49,2.623" id="Fill-1" fill="#6D65BA"></path>
                <path d="M49,2.623 C41.278,2.623 35.019,1.448 35.019,0 C35.019,5.795 41.278,10.492 49,10.492 C56.722,10.492 62.981,5.795 62.981,0 C62.981,1.448 56.722,2.623 49,2.623 Z" id="Stroke-3" stroke="#333333" stroke-width="2" stroke-linecap="round" stroke-linejoin="round"></path>
                <path d="M74.5664,0 L62.9154,0 C62.9154,5.795 56.6564,10.492 48.9344,10.492 C41.2124,10.492 34.9534,5.795 34.9534,0 L23.3014,0 L0.0004,25.966 L13.1814,40.804 L23.3014,29.411 L23.3014,80 L74.5664,80 L74.5664,29.264 L84.8184,40.804 L98.0004,25.966 L74.5664,0 Z" id="Fill-5" fill="#9795F9"></path>
                <path d="M74.5664,0 L62.9154,0 C62.9154,5.795 56.6564,10.492 48.9344,10.492 C41.2124,10.492 34.9534,5.795 34.9534,0 L23.3014,0 L0.0004,25.966 L13.1814,40.804 L23.3014,29.411 L23.3014,80 L74.5664,80 L74.5664,29.264 L84.8184,40.804 L98.0004,25.966 L74.5664,0 Z" id="Stroke-7" stroke="#333333" stroke-width="2" stroke-linecap="round" stroke-linejoin="round"></path>
                <polygon id="Fill-9" fill="#E24329" points="49.0029 47.5566 49.0029 47.5566 54.5269 30.8686 43.4789 30.8686"></polygon>
                <polygon id="Fill-11" fill="#FC6D26" points="48.999 47.5566 43.475 30.8686 35.739 30.8686"></polygon>
                <path d="M35.7373,30.874 L34.0553,35.944 C33.9033,36.405 34.0683,36.913 34.4703,37.2 L48.9963,47.562 L35.7373,30.874 Z" id="Fill-13" fill="#FCA326"></path>
                <path d="M35.7393,30.874 L43.4803,30.874 L40.1483,20.823 C39.9783,20.309 39.2353,20.309 39.0583,20.823 L35.7393,30.874 Z" id="Fill-15" fill="#E24329"></path>
                <polygon id="Fill-17" fill="#FC6D26" points="49.0029 47.5566 54.5269 30.8686 62.2689 30.8686"></polygon>
                <path d="M62.2627,30.874 L63.9447,35.944 C64.0967,36.405 63.9317,36.913 63.5297,37.2 L49.0037,47.557 L62.2627,30.874 Z" id="Fill-19" fill="#FCA326"></path>
                <path d="M62.2666,30.874 L54.5256,30.874 L57.8516,20.823 C58.0216,20.309 58.7646,20.309 58.9416,20.823 L62.2666,30.874 Z" id="Fill-21" fill="#E24329"></path>
                <polygon id="Stroke-23" stroke="#333333" stroke-width="2" stroke-linecap="round" stroke-linejoin="round" points="49.0029 47.5566 49.0029 47.5566 54.5269 30.8686 43.4789 30.8686"></polygon>
                <polygon id="Stroke-25" stroke="#333333" stroke-width="2" stroke-linecap="round" stroke-linejoin="round" points="48.999 47.5566 43.475 30.8686 35.739 30.8686"></polygon>
                <path d="M35.7373,30.874 L34.0553,35.944 C33.9033,36.405 34.0683,36.913 34.4703,37.2 L48.9963,47.562 L35.7373,30.874 Z" id="Stroke-27" stroke="#333333" stroke-width="2" stroke-linecap="round" stroke-linejoin="round"></path>
                <path d="M35.7393,30.874 L43.4803,30.874 L40.1483,20.823 C39.9783,20.309 39.2353,20.309 39.0583,20.823 L35.7393,30.874 Z" id="Stroke-29" stroke="#333333" stroke-width="2" stroke-linecap="round" stroke-linejoin="round"></path>
                <polygon id="Stroke-31" stroke="#333333" stroke-width="2" stroke-linecap="round" stroke-linejoin="round" points="49.0029 47.5566 54.5269 30.8686 62.2689 30.8686"></polygon>
                <path d="M62.2627,30.874 L63.9447,35.944 C64.0967,36.405 63.9317,36.913 63.5297,37.2 L49.0037,47.557 L62.2627,30.874 Z" id="Stroke-33" stroke="#333333" stroke-width="2" stroke-linecap="round" stroke-linejoin="round"></path>
                <path d="M62.2666,30.874 L54.5256,30.874 L57.8516,20.823 C58.0216,20.309 58.7646,20.309 58.9416,20.823 L62.2666,30.874 Z" id="Stroke-35" stroke="#333333" stroke-width="2" stroke-linecap="round" stroke-linejoin="round"></path>
            </g>
        </g>
    </g>
</svg>